%YAML 1.1
%TAG !u! tag:unity3d.com,2011:
--- !u!74 &7400000
AnimationClip:
  m_ObjectHideFlags: 0
  m_CorrespondingSourceObject: {fileID: 0}
  m_PrefabInstance: {fileID: 0}
  m_PrefabAsset: {fileID: 0}
  m_Name: NInja
  serializedVersion: 6
  m_Legacy: 0
  m_Compressed: 0
  m_UseHighQualityCurve: 1
  m_RotationCurves: []
  m_CompressedRotationCurves: []
  m_EulerCurves: []
  m_PositionCurves: []
  m_ScaleCurves: []
  m_FloatCurves: []
  m_PPtrCurves:
  - curve:
    - time: 0
      value: {fileID: 21300000, guid: 39be0ad9c85e2f34797d464ea9109148, type: 3}
    - time: 0.083333336
      value: {fileID: 21300000, guid: dd54f9fb03a65d548a11b81bb39a937f, type: 3}
    - time: 0.16666667
      value: {fileID: 21300000, guid: e29d2764d1559f04bbc5bc289455c302, type: 3}
    - time: 0.25
      value: {fileID: 21300000, guid: c57fbc78a100486458a561709436496a, type: 3}
    - time: 0.33333334
      value: {fileID: 21300000, guid: e41168c565579ac4eb950c1c1783dac2, type: 3}
    - time: 0.41666666
      value: {fileID: 21300000, guid: 5c6f9384230a5e34b84771194f9f6e81, type: 3}
    - time: 0.5
      value: {fileID: 21300000, guid: 05a5ff321821839448258c97b0b61616, type: 3}
    - time: 0.5833333
      value: {fileID: 21300000, guid: 960f0418324f34742a942d93417a8ec0, type: 3}
    - time: 0.6666667
      value: {fileID: 21300000, guid: f5cf858fc5e2ab04eb3ecae5bba65576, type: 3}
    - time: 0.75
      value: {fileID: 21300000, guid: 206cceeca265aac48a760b5244c18530, type: 3}
    attribute: m_Sprite
    path: 
    classID: 212
    script: {fileID: 0}
  m_SampleRate: 12
  m_WrapMode: 0
  m_Bounds:
    m_Center: {x: 0, y: 0, z: 0}
    m_Extent: {x: 0, y: 0, z: 0}
  m_ClipBindingConstant:
    genericBindings:
    - serializedVersion: 2
      path: 0
      attribute: 0
      script: {fileID: 0}
      typeID: 212
      customType: 23
      isPPtrCurve: 1
    pptrCurveMapping:
    - {fileID: 21300000, guid: 39be0ad9c85e2f34797d464ea9109148, type: 3}
    - {fileID: 21300000, guid: dd54f9fb03a65d548a11b81bb39a937f, type: 3}
    - {fileID: 21300000, guid: e29d2764d1559f04bbc5bc289455c302, type: 3}
    - {fileID: 21300000, guid: c57fbc78a100486458a561709436496a, type: 3}
    - {fileID: 21300000, guid: e41168c565579ac4eb950c1c1783dac2, type: 3}
    - {fileID: 21300000, guid: 5c6f9384230a5e34b84771194f9f6e81, type: 3}
    - {fileID: 21300000, guid: 05a5ff321821839448258c97b0b61616, type: 3}
    - {fileID: 21300000, guid: 960f0418324f34742a942d93417a8ec0, type: 3}
    - {fileID: 21300000, guid: f5cf858fc5e2ab04eb3ecae5bba65576, type: 3}
    - {fileID: 21300000, guid: 206cceeca265aac48a760b5244c18530, type: 3}
  m_AnimationClipSettings:
    serializedVersion: 2
    m_AdditiveReferencePoseClip: {fileID: 0}
    m_AdditiveReferencePoseTime: 0
    m_StartTime: 0
    m_StopTime: 0.8333333
    m_OrientationOffsetY: 0
    m_Level: 0
    m_CycleOffset: 0
    m_HasAdditiveReferencePose: 0
    m_LoopTime: 1
    m_LoopBlend: 0
    m_LoopBlendOrientation: 0
    m_LoopBlendPositionY: 0
    m_LoopBlendPositionXZ: 0
    m_KeepOriginalOrientation: 0
    m_KeepOriginalPositionY: 1
    m_KeepOriginalPositionXZ: 0
    m_HeightFromFeet: 0
    m_Mirror: 0
  m_EditorCurves: []
  m_EulerEditorCurves: []
  m_HasGenericRootTransform: 0
  m_HasMotionFloatCurves: 0
  m_Events: []
