%YAML 1.1
%TAG !u! tag:unity3d.com,2011:
--- !u!74 &7400000
AnimationClip:
  m_ObjectHideFlags: 0
  m_CorrespondingSourceObject: {fileID: 0}
  m_PrefabInstance: {fileID: 0}
  m_PrefabAsset: {fileID: 0}
  m_Name: RunShoot
  serializedVersion: 6
  m_Legacy: 0
  m_Compressed: 0
  m_UseHighQualityCurve: 1
  m_RotationCurves: []
  m_CompressedRotationCurves: []
  m_EulerCurves: []
  m_PositionCurves: []
  m_ScaleCurves: []
  m_FloatCurves: []
  m_PPtrCurves:
  - curve:
    - time: 0
      value: {fileID: 21300000, guid: 5e211facc6a08d84f95a5bafb5171b4c, type: 3}
    - time: 0.083333336
      value: {fileID: 21300000, guid: 2599ff8ca4ba4a847b78662db1523849, type: 3}
    - time: 0.16666667
      value: {fileID: 21300000, guid: 2d78546aab796a44ebb604835afa5629, type: 3}
    - time: 0.25
      value: {fileID: 21300000, guid: 2830a5371a585e0438b3464bf2db3369, type: 3}
    - time: 0.33333334
      value: {fileID: 21300000, guid: c41db19c87a441048b2704c081d1c72c, type: 3}
    - time: 0.41666666
      value: {fileID: 21300000, guid: d3fc2eb569efa204c9bf4c6099def93f, type: 3}
    - time: 0.5
      value: {fileID: 21300000, guid: 2b3dba23c86287f4c83d09269ac30e9f, type: 3}
    - time: 0.5833333
      value: {fileID: 21300000, guid: aacb371f17ef02b45a366f31b6c7ee63, type: 3}
    - time: 0.6666667
      value: {fileID: 21300000, guid: 322cd9014e8d2a6499656130423a3c45, type: 3}
    attribute: m_Sprite
    path: 
    classID: 212
    script: {fileID: 0}
  m_SampleRate: 12
  m_WrapMode: 0
  m_Bounds:
    m_Center: {x: 0, y: 0, z: 0}
    m_Extent: {x: 0, y: 0, z: 0}
  m_ClipBindingConstant:
    genericBindings:
    - serializedVersion: 2
      path: 0
      attribute: 0
      script: {fileID: 0}
      typeID: 212
      customType: 23
      isPPtrCurve: 1
    pptrCurveMapping:
    - {fileID: 21300000, guid: 5e211facc6a08d84f95a5bafb5171b4c, type: 3}
    - {fileID: 21300000, guid: 2599ff8ca4ba4a847b78662db1523849, type: 3}
    - {fileID: 21300000, guid: 2d78546aab796a44ebb604835afa5629, type: 3}
    - {fileID: 21300000, guid: 2830a5371a585e0438b3464bf2db3369, type: 3}
    - {fileID: 21300000, guid: c41db19c87a441048b2704c081d1c72c, type: 3}
    - {fileID: 21300000, guid: d3fc2eb569efa204c9bf4c6099def93f, type: 3}
    - {fileID: 21300000, guid: 2b3dba23c86287f4c83d09269ac30e9f, type: 3}
    - {fileID: 21300000, guid: aacb371f17ef02b45a366f31b6c7ee63, type: 3}
    - {fileID: 21300000, guid: 322cd9014e8d2a6499656130423a3c45, type: 3}
  m_AnimationClipSettings:
    serializedVersion: 2
    m_AdditiveReferencePoseClip: {fileID: 0}
    m_AdditiveReferencePoseTime: 0
    m_StartTime: 0
    m_StopTime: 0.75
    m_OrientationOffsetY: 0
    m_Level: 0
    m_CycleOffset: 0
    m_HasAdditiveReferencePose: 0
    m_LoopTime: 1
    m_LoopBlend: 0
    m_LoopBlendOrientation: 0
    m_LoopBlendPositionY: 0
    m_LoopBlendPositionXZ: 0
    m_KeepOriginalOrientation: 0
    m_KeepOriginalPositionY: 1
    m_KeepOriginalPositionXZ: 0
    m_HeightFromFeet: 0
    m_Mirror: 0
  m_EditorCurves: []
  m_EulerEditorCurves: []
  m_HasGenericRootTransform: 0
  m_HasMotionFloatCurves: 0
  m_Events: []
